<svg width="671" height="142" viewBox="0 0 671 142" fill="none" xmlns="http://www.w3.org/2000/svg">
<path d="M204.397 30.9579C201.031 30.3448 197.359 30.0383 193.993 30.0383C184.814 30.0383 175.94 32.4904 167.373 37.3946C150.544 47.5096 138.916 61.6092 126.677 76.6284C115.968 89.8084 104.952 103.908 88.7351 110.651C83.2274 112.797 77.1077 113.716 70.3761 113.716C66.0924 113.716 61.1966 113.41 56.3009 112.49C37.9419 108.506 22.6428 88.8889 22.6428 68.659C22.6428 43.2184 43.1436 22.682 68.5402 22.682C84.4513 22.682 95.7727 29.1188 109.236 45.0575C113.214 40.1533 118.109 34.9425 123.923 28.5057C109.236 9.50191 90.571 0 68.5402 0C30.5983 0 0 30.6514 0 68.659C0 102.682 28.7624 133.946 63.0325 136.705C64.8684 136.705 67.0103 137.011 68.8462 137.011C89.3471 137.011 109.848 128.123 125.147 112.797C136.468 101.456 145.648 88.2759 156.663 76.6284C167.985 64.6743 181.448 49.9617 199.807 53.0268C214.188 55.4789 224.592 69.272 224.592 83.3717C224.592 100.536 211.128 114.33 193.687 114.33C185.732 114.33 177.47 110.038 170.433 102.375C169.515 101.456 167.985 99.6169 165.843 96.5517C160.641 102.069 155.439 108.199 150.544 114.33C161.559 128.736 177.47 137.011 193.687 137.011C223.368 137.011 247.234 112.797 247.234 83.3717C247.234 57.931 229.181 35.8621 204.397 30.9579Z" fill="white"/>
<path d="M368.47 38.6207C361.127 38.6207 355.007 40.1533 349.805 43.5249C344.604 46.8966 340.626 51.1878 338.484 57.0115H337.566C335.73 51.4943 332.364 46.8966 327.775 43.5249C323.185 40.1533 317.371 38.6207 310.64 38.6207C303.908 38.6207 298.094 40.1533 293.504 43.5249C288.609 46.8966 285.243 51.1878 283.101 57.0115H281.877V39.8468H259.234V140.077H282.795V79.0805C282.795 75.0958 283.713 71.4176 285.243 68.3525C286.773 65.2874 289.221 62.8353 291.975 60.9962C294.728 59.1571 297.788 58.5441 301.154 58.5441C306.05 58.5441 310.334 60.0767 313.393 63.1418C316.453 66.2069 317.983 70.4981 317.983 75.4023V140.077H341.238V77.5479C341.238 72.0307 342.768 67.433 346.134 63.7548C349.193 60.0767 353.783 58.5441 359.597 58.5441C364.493 58.5441 368.47 60.0767 371.836 62.8353C375.202 65.5939 376.732 70.1916 376.732 76.6284V140.383H400.293V72.9502C400.293 61.6092 397.233 53.3334 391.419 47.5096C385.605 41.6859 377.956 38.6207 368.776 38.6207H368.47Z" fill="white"/>
<path d="M526.969 38.6207C519.626 38.6207 513.506 40.1533 508.304 43.5249C503.103 46.8966 499.125 51.1878 496.983 57.0115H496.065C494.229 51.4943 490.863 46.8966 486.274 43.5249C481.684 40.1533 475.87 38.6207 469.139 38.6207C462.407 38.6207 456.593 40.1533 452.004 43.5249C447.108 46.8966 443.742 51.1878 441.6 57.0115H440.376V39.8468H417.733V140.077H441.294V79.0805C441.294 75.0958 442.212 71.4176 443.742 68.3525C445.272 65.2874 447.72 62.8353 450.474 60.9962C453.227 59.1571 456.287 58.5441 459.653 58.5441C464.549 58.5441 468.833 60.0767 471.892 63.1418C474.952 66.2069 476.482 70.4981 476.482 75.4023V140.077H499.737V77.5479C499.737 72.0307 501.267 67.433 504.633 63.7548C507.692 60.0767 512.282 58.5441 518.096 58.5441C522.992 58.5441 526.969 60.0767 530.335 62.8353C533.701 65.5939 535.231 70.1916 535.231 76.6284V140.383H558.792V72.9502C558.792 61.6092 555.732 53.3334 549.918 47.5096C544.104 41.6859 536.455 38.6207 527.275 38.6207H526.969Z" fill="white"/>
<path d="M586.332 0C582.66 0 579.294 1.22606 576.54 3.67817C573.786 6.13028 572.562 9.1954 572.562 12.8736C572.562 16.5517 573.786 19.3103 576.54 21.7624C579.294 24.2146 582.354 25.4406 586.332 25.4406C590.309 25.4406 593.369 24.2146 596.123 21.7624C598.877 19.3103 600.101 16.2452 600.101 12.8736C600.101 9.50191 598.877 6.13028 596.123 3.67817C593.369 1.22606 590.309 0 586.332 0Z" fill="white"/>
<path d="M597.957 39.8468H574.396V140.077H597.957V39.8468Z" fill="white"/>
<path d="M666.192 120.766C666.192 120.766 664.662 121.072 663.438 121.379C662.214 121.685 660.99 121.685 659.461 121.685C657.625 121.685 655.789 121.379 654.259 120.766C652.729 120.153 651.505 118.927 650.281 117.394C649.363 115.862 648.751 113.41 648.751 110.038V58.2372H668.64V39.8464H648.751V15.9384H625.19V39.8464H611.115V58.2372H625.19V114.023C625.19 120.153 626.414 125.67 629.168 129.655C631.922 133.946 635.594 137.011 640.49 138.85C645.079 140.689 650.587 141.609 656.401 141.609C659.767 141.609 662.52 141.302 664.968 140.689C667.416 140.076 668.946 139.77 670.476 139.157L666.498 120.766H666.192Z" fill="white"/>
</svg>
