<?xml version="1.0" encoding="UTF-8"?>
<svg version="1" viewBox="0 0 512 512" xmlns="http://www.w3.org/2000/svg" xmlns:cc="http://creativecommons.org/ns#" xmlns:dc="http://purl.org/dc/elements/1.1/" xmlns:rdf="http://www.w3.org/1999/02/22-rdf-syntax-ns#">
  <metadata>
    <rdf:RDF>
      <cc:Work rdf:about="">
        <dc:format>image/svg+xml</dc:format>
        <dc:type rdf:resource="http://purl.org/dc/dcmitype/StillImage"/>
        <dc:title/>
      </cc:Work>
    </rdf:RDF>
  </metadata>
  <defs>
    <filter id="b" x="-.038199" y="-.064565" width="1.0764" height="1.1291" color-interpolation-filters="sRGB">
      <feGaussianBlur stdDeviation="4.2495336"/>
    </filter>
    <filter id="a" x="-.010461" y="-.014069" width="1.0209" height="1.0281" color-interpolation-filters="sRGB">
      <feGaussianBlur stdDeviation="6.5134838"/>
    </filter>
  </defs>
  <rect width="512" height="512" fill="#fff"/>
  <path d="m-83.375-129.3s-122.71-8.1651-331.67 57.22c-212.95 66.633-333.73 161.08-333.73 161.08s317.4-177.22 675.65-187.29zm457.7 192.68 15.953-1.0411s-91.398-110.89-266.34-164.91c98.34 39.975 183.93 92.94 250.38 165.95zm26.108 46.075c2.4527-4.2525 10.37 13.51 16.383 20.972 0.25468 1.49 0.67773 2.3993-2.8085 1.682-0.29313-1.5317-0.79911-1.976-0.79911-1.976s-8.4149-5.0068-10.995-8.5585c-2.5819-3.5515-3.0402-9.7638-1.7814-12.12zm214.7 527.88s19.403-222.76-330.58-274.12c-44.358-6.5084-100.46-11.518-157.2-11.661-280.51 3.7088-290.73-323.53-79.361-340.05 87.6-7.2281 192.2 40.028 294.46 87.648-0.37972 12.7 0.14537 23.986 8.489 34.415 8.341 10.426 40.383 21.8 50.622 27.675 10.238 5.8768 43.038 26.73 63.137 52.892 4.3589-8.1535 40.761-31.848 40.761-31.848s-8.7203 0.18983-29.007-7.3923c-20.29-7.582-44.365-30.523-44.935-31.848-0.56836-1.328-0.94689-3.4128 3.7945-4.3613 3.6001-3.031-4.5533-12.89-8.1559-16.49-3.6001-3.6025-27.681-44.548-28.248-45.497-0.56832-0.94859-0.75941-1.895-2.4642-3.0333-5.31-1.7075-28.63 2.464-28.63 2.464s-35.865-17.615-48.228-55.592c0.18031 6.652-6.1499 13.915 0 29.197-18.7-7.9106-34.762-21.402-47.431-54.743-7.5403 18.963 0 31.02 0 31.02s-44.035-12.305-51.08-52.915c-7.7325 18.23 0 29.195 0 29.195s-71.788-37.457-191.07-38c-79.86-7.3253-96.486-147.81-89.088-171.46 0 0-115.19-60.708-341.94-87.528-226.75-26.823-412.71-4.042-412.71-4.042s401.6-19.273 723.32 110.98c10.937 48.917 43.838 130.39 61.558 169.55-50.705 35.058-107.88 68.023-116.79 184.94-8.901 116.92 91.618 219.75 216.27 222.93 118.36 6.3048 200.14 7.2003 299.27 58.59 94.615 52.315 172.19 211.73 179.87 355.09 8.2922-106.37-31.627-335.12-217.9-404.58 260.36 45.562 283.26 238.57 283.26 238.57zm-704.64-784.1-9.3683-30.217s-154.58-27.45-362.41-12.677c-207.83 14.773-417.68 87.526-417.68 87.526s429.37-108.04 789.45-44.632" fill="#265ab1" filter="url(#a)" opacity=".5" stroke-width="12.016" style="paint-order:stroke fill markers"/>
  <path d="m133.28 181.02c-3.7333 0.0291-7.01 2.3867-8.25 5.8965-0.40539 1.1412-0.52344 2.2972-0.52344 3.4941v117.65c0.13805 4.9024 3.9725 8.7242 8.8301 8.7363 10.182 0.0135 31.15-0.0352 31.15-0.0352l-0.0371-9.1055h-30.584c-0.16231-0.97807-0.12095-116.12 0.0371-116.65 0.9369-0.13077 247.48-0.0838 248.02 0.043 0.1491 0.88803 0.10647 116.04-0.0566 116.65h-206.19v9.1055s0.80356 1.7e-4 1.1719 0.0137h205.9c3.6926-0.0367 6.9644-2.3528 8.2226-5.834 0.40535-1.1089 0.52149-2.2528 0.52149-3.4219v-117.87c-0.0776-3.894-2.7276-7.3145-6.4766-8.3496l-6e-3 -8e-3c-0.99276-0.26558-1.984-0.31445-3.0098-0.31445zm114.81 34.545c-0.0771 0.14803-0.13359 0.25623-0.16406 0.35743-8.356 22.407-16.704 44.823-25.057 67.227-0.0367 0.0367-0.0371 0.1053-0.0371 0.14844v0.0723c0 0.0291 0.0365 0.0426 0.043 0.0762h11.471l0.0215 4e-3c0.0884-0.2556 0.19048-0.47502 0.26758-0.71289 1.7761-5.0458 3.5531-10.083 5.334-15.133 0.29627-0.8117 0.59165-1.6283 0.85938-2.4434 0.10597-0.34022 0.27796-0.5177 0.63671-0.47461 0.11622 0.0135 0.25107 0 0.36914 0h25.072c2.2664 6.2792 4.5175 12.512 6.7598 18.746h11.736c-8.4666-22.684-16.898-45.278-25.312-67.867zm-44.115 0.22852c-0.65406 0-1.0664 0.18963-1.498 0.69726-8.7391 10.349-17.499 20.7-26.258 31.037-0.11621 0.13238-0.26713 0.25169-0.51953 0.48438v-25.746c0-2.1309 0.0367-4.2684 0-6.4004h-10.99v67.508c0.87248 0.15315 10.417 0.12147 11.006-0.0371v-0.85938l-0.0293-4e-3v-23.547c0-0.53108 0.14825-0.90351 0.58203-1.2402 1.8186-1.4381 3.6136-2.9186 5.4082-4.3867 0.17903-0.13293 0.35289-0.25112 0.57617-0.41406 0.1936 0.25021 0.35554 0.4547 0.50586 0.67968 3.0506 4.4011 6.1038 8.7976 9.1524 13.191 3.7408 5.4128 7.4875 10.802 11.221 16.189 0.20734 0.31271 0.39773 0.54883 0.85742 0.54883 3.9307-0.0135 7.8574-0.0137 11.783-0.0137 0.12997 0 0.26366-0.043 0.47071-0.0899-8.6927-12.66-17.35-25.23-26.033-37.879 1.747-2.028 3.4369-3.9804 5.125-5.9805 1.6925-1.9582 3.3786-3.9227 5.0684-5.8945 1.6872-1.9668 3.363-3.9374 5.0547-5.9062 1.6882-1.9734 3.3798-3.9423 5.0488-5.9102 1.6806-1.953 3.3475-3.9068 5.1289-6.0137h-0.99024c-3.5572 0-7.1122 0.0213-10.67-0.0137zm89.061 0.0703c-0.18335 0.84408-0.13818 67.033 0.0371 67.588h39.535v-9.4043h-19.07c-1.6033 0-3.2202 0.0135-4.8164 0-1.5733-0.0135-3.1397 0.0592-4.7715-0.0352v-52.926l-0.01-0.01c0-1.7482 0.066-3.4813-0.0488-5.2129zm47.094 0.0215v67.549h10.949c0.0364-0.11351 0.0645-0.17538 0.0645-0.25195v-66.902h-6e-3c0-0.10488-7.1e-4 -0.19196-0.0371-0.30078 0-0.0291-0.0371-0.0359-0.0371-0.0566 0-0.0135-0.043-0.0371-0.043-0.0371zm-86.16 9.4551c0.11621 0.17741 0.20868 0.2855 0.24023 0.40235 1.8359 6.8551 4.3441 13.506 6.623 20.23 0.94667 2.7979 1.9288 5.5777 2.8926 8.377 0.0733 0.25049 0.14539 0.5008 0.23437 0.81055h-19.693c0.0879-0.29175 0.16284-0.54205 0.24804-0.79297 2.3114-6.693 4.656-13.356 6.9082-20.066 0.90373-2.6971 1.5841-5.4799 2.3535-8.2305 0.065-0.20843 0.10572-0.41671 0.19336-0.73047z" clip-rule="evenodd" fill="#2b62c0" fill-rule="evenodd" filter="url(#b)" opacity=".5" stroke-width=".71339"/>
  <path d="m131.28 177.02c-3.7333 0.0291-7.01 2.3867-8.25 5.8965-0.40539 1.1412-0.52344 2.2972-0.52344 3.4941v117.65c0.13805 4.9024 3.9725 8.7242 8.8301 8.7363 10.182 0.0135 31.15-0.0352 31.15-0.0352l-0.0371-9.1055h-30.584c-0.16231-0.97807-0.12095-116.12 0.0371-116.65 0.9369-0.13077 247.48-0.0838 248.02 0.043 0.1491 0.88803 0.10647 116.04-0.0566 116.65h-206.19v9.1055s0.80356 1.7e-4 1.1719 0.0137h205.9c3.6926-0.0367 6.9644-2.3528 8.2226-5.834 0.40535-1.1089 0.52149-2.2528 0.52149-3.4219v-117.87c-0.0776-3.894-2.7276-7.3145-6.4766-8.3496l-6e-3 -8e-3c-0.99276-0.26558-1.984-0.31445-3.0098-0.31445zm114.81 34.545c-0.0771 0.14803-0.13359 0.25623-0.16406 0.35743-8.356 22.407-16.704 44.823-25.057 67.227-0.0367 0.0367-0.0371 0.1053-0.0371 0.14844v0.0723c0 0.0291 0.0365 0.0426 0.043 0.0762h11.471l0.0215 4e-3c0.0884-0.2556 0.19048-0.47502 0.26758-0.71289 1.7761-5.0458 3.5531-10.083 5.334-15.133 0.29627-0.8117 0.59165-1.6283 0.85938-2.4434 0.10597-0.34022 0.27796-0.5177 0.63671-0.47461 0.11622 0.0135 0.25107 0 0.36914 0h25.072c2.2664 6.2792 4.5175 12.512 6.7598 18.746h11.736c-8.4666-22.684-16.898-45.278-25.312-67.867zm-44.115 0.22852c-0.65406 0-1.0664 0.18963-1.498 0.69726-8.7391 10.349-17.499 20.7-26.258 31.037-0.11621 0.13238-0.26713 0.25169-0.51953 0.48438v-25.746c0-2.1309 0.0367-4.2684 0-6.4004h-10.99v67.508c0.87248 0.15315 10.417 0.12147 11.006-0.0371v-0.85938l-0.0293-4e-3v-23.547c0-0.53108 0.14825-0.90351 0.58203-1.2402 1.8186-1.4381 3.6136-2.9186 5.4082-4.3867 0.17903-0.13293 0.35289-0.25112 0.57617-0.41406 0.1936 0.25021 0.35554 0.4547 0.50586 0.67968 3.0506 4.4011 6.1038 8.7976 9.1524 13.191 3.7408 5.4128 7.4875 10.802 11.221 16.189 0.20734 0.31271 0.39773 0.54883 0.85742 0.54883 3.9307-0.0135 7.8574-0.0137 11.783-0.0137 0.12997 0 0.26366-0.043 0.47071-0.0899-8.6927-12.66-17.35-25.23-26.033-37.879 1.747-2.028 3.4369-3.9804 5.125-5.9805 1.6925-1.9582 3.3786-3.9227 5.0684-5.8945 1.6872-1.9668 3.363-3.9374 5.0547-5.9062 1.6882-1.9734 3.3798-3.9423 5.0488-5.9102 1.6806-1.953 3.3475-3.9068 5.1289-6.0137h-0.99024c-3.5572 0-7.1122 0.0213-10.67-0.0137zm89.061 0.0703c-0.18335 0.84408-0.13818 67.033 0.0371 67.588h39.535v-9.4043h-19.07c-1.6033 0-3.2202 0.0135-4.8164 0-1.5733-0.0135-3.1397 0.0592-4.7715-0.0352v-52.926l-0.01-0.01c0-1.7482 0.066-3.4813-0.0488-5.2129zm47.094 0.0215v67.549h10.949c0.0364-0.11351 0.0645-0.17538 0.0645-0.25195v-66.902h-6e-3c0-0.10488-7.1e-4 -0.19196-0.0371-0.30078 0-0.0291-0.0371-0.0359-0.0371-0.0566 0-0.0135-0.043-0.0371-0.043-0.0371zm-86.16 9.4551c0.11621 0.17741 0.20868 0.2855 0.24023 0.40235 1.8359 6.8551 4.3441 13.506 6.623 20.23 0.94667 2.7979 1.9288 5.5777 2.8926 8.377 0.0733 0.25049 0.14539 0.5008 0.23437 0.81055h-19.693c0.0879-0.29175 0.16284-0.54205 0.24804-0.79297 2.3114-6.693 4.656-13.356 6.9082-20.066 0.90373-2.6971 1.5841-5.4799 2.3535-8.2305 0.065-0.20843 0.10572-0.41671 0.19336-0.73047zm-85.721 99.412c-2.0872 0-3.6959 0.61142-4.8184 1.834-1.1268 1.2247-1.6914 2.9751-1.6914 5.2559 0 2.2811 0.56117 4.0398 1.6816 5.2793 1.1182 1.2383 2.72 1.8574 4.8066 1.8574 2.0661 0 3.6586-0.62714 4.7832-1.8711 1.1266-1.2494 1.6894-2.9928 1.6894-5.2461 0-2.2554-0.55857-4.0053-1.6856-5.2461-1.1226-1.242-2.7116-1.8633-4.7656-1.8633zm69.506 0.0234c-1.3801 0-2.4812 0.33386-3.3008 0.99219-0.82004 0.66197-1.2305 1.5701-1.2305 2.7207 0 0.92234 0.26007 1.7078 0.77929 2.3652 0.51464 0.65555 1.4056 1.2357 2.6699 1.7461 1.2184 0.49237 2.0265 0.91789 2.418 1.2793 0.38958 0.36157 0.58594 0.79789 0.58594 1.3105 0 0.57358-0.2115 1.033-0.63867 1.375-0.42411 0.33878-1.0886 0.50782-1.9844 0.50782-0.60804 0-1.2724-0.0844-1.9805-0.25391-0.7116-0.17094-1.378-0.40238-2.0078-0.69922v2.1348c0.99597 0.48164 2.2747 0.72851 3.8359 0.72851 1.5656 0 2.791-0.3513 3.6816-1.0488 0.88853-0.6972 1.334-1.6627 1.334-2.8906 0-0.62821-0.11308-1.1681-0.33204-1.627-0.2176-0.4629-0.56718-0.87356-1.0391-1.2402h4e-3c-0.47652-0.36602-1.2207-0.76036-2.2305-1.1797-0.90572-0.3716-1.5308-0.67379-1.875-0.90234-0.3492-0.22622-0.5948-0.46647-0.74414-0.71875-0.15503-0.2575-0.23242-0.56437-0.23242-0.92383 0-0.52182 0.19058-0.94566 0.56836-1.2598 0.37737-0.32275 0.9312-0.47852 1.6641-0.47852 0.96166 0 2.0614 0.25459 3.293 0.77344l0.71484-1.8379c-1.3055-0.58076-2.6268-0.87305-3.9531-0.87305zm54.139 0c-1.3808 0-2.478 0.33386-3.2969 0.99219-0.81962 0.66197-1.2324 1.5701-1.2324 2.7207 0 0.92234 0.25938 1.7078 0.77735 2.3652 0.51464 0.65555 1.4028 1.2357 2.668 1.7461 1.2219 0.49237 2.0281 0.91789 2.4199 1.2793 0.38956 0.36157 0.58398 0.79789 0.58398 1.3105 0 0.57358-0.21008 1.033-0.63476 1.375-0.42487 0.33878-1.0893 0.50782-1.9863 0.50782-0.60737 0-1.2707-0.0844-1.9746-0.25391-0.71589-0.17094-1.3814-0.40238-2.0156-0.69922v2.1348c1.0001 0.48164 2.2782 0.72851 3.8418 0.72851 1.5636 0 2.793-0.3513 3.6816-1.0488 0.88718-0.6972 1.332-1.6627 1.332-2.8906 0-0.62821-0.11445-1.1681-0.33203-1.627-0.22353-0.4629-0.57103-0.87341-1.041-1.2402-0.47368-0.36602-1.22-0.76036-2.2363-1.1797-0.89524-0.3716-1.5256-0.67379-1.8691-0.90234-0.34488-0.22622-0.59659-0.46647-0.7461-0.71875-0.14911-0.2575-0.22656-0.56437-0.22656-0.92383 0-0.52182 0.18785-0.94566 0.56836-1.2598 0.37732-0.32275 0.93374-0.47852 1.6621-0.47852 0.96594 0 2.0637 0.25459 3.2949 0.77344l0.71289-1.8379c-1.3069-0.58076-2.6269-0.87305-3.9512-0.87305zm27.424 0c-1.3432 0-2.517 0.28559-3.5117 0.85938-0.99362 0.57284-1.7543 1.3988-2.2812 2.4766-0.52683 1.0811-0.79102 2.3376-0.79102 3.7715 0 2.2831 0.54243 4.0351 1.6289 5.2578 1.0839 1.2293 2.6395 1.8418 4.6621 1.8418 1.3714 0 2.6045-0.20878 3.6894-0.61133v-1.9434c-0.59074 0.18713-1.1658 0.33687-1.7148 0.45704-0.54628 0.11513-1.1166 0.17187-1.7012 0.17187-1.353 0-2.3895-0.43838-3.1074-1.3086-0.71447-0.86763-1.0723-2.1528-1.0723-3.8418 0-1.6235 0.37322-2.8868 1.1172-3.8106 0.74379-0.92228 1.7634-1.3809 3.0605-1.3809 0.57212 0 1.1195 0.079 1.6426 0.25 0.51969 0.16609 1.0124 0.36017 1.4805 0.58008l0.8125-1.8789c-1.1964-0.59443-2.5064-0.89063-3.9141-0.89063zm-179.09 0.19336 4.584 8.5371v5.2832h2.2695v-5.3594l4.6074-8.4609h-2.4609l-3.2695 6.3066-3.2734-6.3066zm63.863 0v13.82h7.8223v-1.918h-5.5586v-4.3379h5.209v-1.8906h-5.209v-3.7637h5.5586v-1.9102zm64.277 0v13.824h7.8164v-1.9219h-5.5625v-4.3359h5.2148v-1.8926h-5.2148v-3.7637h5.5625v-1.9102zm32.297 0v13.824h7.8203v-1.9219h-5.5605v-4.3359h5.209v-1.8926h-5.209v-3.7637h5.5605v-1.9102zm-173.33 2e-3v13.82h4.9902c1.5438 0 2.7501-0.34625 3.6191-1.0547 0.86577-0.70444 1.2988-1.6761 1.2988-2.916 0-0.92221-0.23117-1.6482-0.68555-2.1875-0.45853-0.54196-1.1699-0.90146-2.1387-1.0859v-0.0938c0.78095-0.13643 1.3814-0.47373 1.7988-1.0078 0.41186-0.53478 0.61914-1.2081 0.61914-2.0156 0-1.1969-0.42205-2.0736-1.2715-2.627-0.84694-0.55349-2.2259-0.83203-4.127-0.83203zm52.27 0v13.818h2.2441v-5.6738h5.2109v-1.916h-5.2109v-4.3203h5.5586v-1.9082zm12.246 0v13.818h2.2422v-5.6738h5.209v-1.916h-5.209v-4.3203h5.5605v-1.9082zm25 0v13.82h2.0508v-7.1816c0-0.97171-0.0489-2.0428-0.13281-3.2148l-0.0449-0.61328h0.0723l6.8047 11.01h2.7637v-13.82h-2.0664v7.2422h-0.01c0 0.50818-5.5e-4 1.2163 0.0644 2.1289 0.0367 0.91272 0.065 1.4422 0.0723 1.5859h-0.0508l-6.7832-10.957zm29.682 2e-3v13.82h2.2617v-13.82zm6.0195 0 4.8242 13.818h2.3848l4.8438-13.818h-2.3477l-2.8789 8.5527c-0.10974 0.30404-0.24818 0.77384-0.42187 1.4023-0.16744 0.62818-0.29561 1.185-0.37695 1.6602-0.0574-0.31402-0.16242-0.79275-0.33204-1.4394-0.17391-0.64686-0.32878-1.1732-0.48632-1.584l-2.8828-8.5918zm74.955 0v8.9062c0 1.5839 0.4757 2.8337 1.4277 3.7402 0.95388 0.90972 2.2834 1.3633 3.998 1.3633 1.1535 0 2.1471-0.20944 2.9766-0.61914 0.82725-0.41111 1.4596-1.0031 1.8984-1.7656 0.4399-0.76461 0.6582-1.6598 0.6582-2.6797v-8.9453h-2.2578v8.7246h-2e-3c0 2.2371-1.0641 3.3574-3.1973 3.3574-1.0952 0-1.914-0.27405-2.4414-0.81446-0.53044-0.53909-0.79297-1.3794-0.79297-2.5215v-8.7461zm30.744 0v13.82h2.2598v-13.82zm6.3027 0v1.9414h4.0626v11.879h2.2578v-11.879h4.0684v-1.9414zm-20.615 2e-3v13.82h2.2598v-5.5215h2.2305l3.3066 5.5176h2.5762l-3.9043-6.1152c1.7923-0.73101 2.6848-1.9514 2.6856-3.6758v-2e-3c-4.4e-4 -1.3459-0.43078-2.3512-1.2832-3.0234-0.85985-0.66483-2.1806-1-3.9648-1zm33.23 0 4.5898 8.5371v5.2832h2.2695v-5.3613l4.6074-8.459h-2.4609l-3.2715 6.3066-3.2734-6.3066zm-208.92 1.7207c1.3435 0 2.3499 0.43399 3.0312 1.3125 0.67345 0.87512 1.0137 2.1609 1.0137 3.8555 0 1.7191-0.33992 3.0132-1.0215 3.8809-0.68931 0.87084-1.6994 1.3086-3.0449 1.3086-1.3478 0-2.3647-0.44113-3.0547-1.3203-0.68348-0.87833-1.0274-2.1694-1.0274-3.8691 0-1.6945 0.34401-2.9794 1.0371-3.8555 0.68785-0.87726 1.7112-1.3125 3.0664-1.3125zm-38.654 0.16211h1.9551c1.0237 0 1.765 0.14433 2.2402 0.4375 0.46724 0.28983 0.70117 0.76119 0.70118 1.4102 0 0.71732-0.21509 1.2229-0.6504 1.5254-0.4327 0.29628-1.1282 0.45117-2.0723 0.45117h-2.1738zm216.6 0.0274h1.4902c1.0289 0 1.8009 0.16985 2.3086 0.50781 0.51464 0.34196 0.76563 0.90178 0.76563 1.6836 0 0.76889-0.23124 1.3508-0.70508 1.7422-0.46998 0.38816-1.2372 0.58594-2.291 0.58594h-1.5684zm-216.6 5.627h2.2852c1.0033 0 1.7523 0.17352 2.2383 0.52148 0.49593 0.34199 0.74023 0.8802 0.74023 1.5977 0 0.78181-0.23445 1.3502-0.7207 1.7148-0.48512 0.36158-1.1941 0.54492-2.1426 0.54492h-2.4004z" clip-rule="evenodd" fill="#2777ff" fill-rule="evenodd" stroke-width=".71339"/>
  <path d="m-83.375-129.3s-122.71-8.1651-331.67 57.22c-212.95 66.633-333.73 161.08-333.73 161.08s317.4-177.22 675.65-187.29zm457.7 192.68 15.953-1.0411s-91.398-110.89-266.34-164.91c98.34 39.975 183.93 92.94 250.38 165.95zm26.108 46.075c2.4527-4.2525 10.37 13.51 16.383 20.972 0.25468 1.49 0.67773 2.3993-2.8085 1.682-0.29313-1.5317-0.79911-1.976-0.79911-1.976s-8.4149-5.0068-10.995-8.5585c-2.5819-3.5515-3.0402-9.7638-1.7814-12.12zm214.7 527.88s19.403-222.76-330.58-274.12c-44.358-6.5084-100.46-11.518-157.2-11.661-280.51 3.7088-290.73-323.53-79.361-340.05 87.6-7.2281 192.2 40.028 294.46 87.648-0.37972 12.7 0.14537 23.986 8.489 34.415 8.341 10.426 40.383 21.8 50.622 27.675 10.238 5.8768 43.038 26.73 63.137 52.892 4.3589-8.1535 40.761-31.848 40.761-31.848s-8.7203 0.18983-29.007-7.3923c-20.29-7.582-44.365-30.523-44.935-31.848-0.56836-1.328-0.94689-3.4128 3.7945-4.3613 3.6001-3.031-4.5533-12.89-8.1559-16.49-3.6001-3.6025-27.681-44.548-28.248-45.497-0.56832-0.94859-0.75941-1.895-2.4642-3.0333-5.31-1.7075-28.63 2.464-28.63 2.464s-35.865-17.615-48.228-55.592c0.18031 6.652-6.1499 13.915 0 29.197-18.7-7.9106-34.762-21.402-47.431-54.743-7.5403 18.963 0 31.02 0 31.02s-44.035-12.305-51.08-52.915c-7.7325 18.23 0 29.195 0 29.195s-71.788-37.457-191.07-38c-79.86-7.3253-96.486-147.81-89.088-171.46 0 0-115.19-60.708-341.94-87.528-226.75-26.823-412.71-4.042-412.71-4.042s401.6-19.273 723.32 110.98c10.937 48.917 43.838 130.39 61.558 169.55-50.705 35.058-107.88 68.023-116.79 184.94-8.901 116.92 91.618 219.75 216.27 222.93 118.36 6.3048 200.14 7.2003 299.27 58.59 94.615 52.315 172.19 211.73 179.87 355.09 8.2922-106.37-31.627-335.12-217.9-404.58 260.36 45.562 283.26 238.57 283.26 238.57zm-704.64-784.1-9.3683-30.217s-154.58-27.45-362.41-12.677c-207.83 14.773-417.68 87.526-417.68 87.526s429.37-108.04 789.45-44.632" fill="#678bc8" stroke-width="12.016" style="paint-order:stroke fill markers"/>
  <path d="m-631.25-307.76c-109.84 0.12552-182.48 9.0254-182.48 9.0254s33.582-1.5888 88.9-0.74218c75.787-3.6481 192.96-4.6953 323.81 10.783 215.63 25.505 330.14 81.544 340.88 86.988 0.26228-2.1989 0.61577-4.0436 1.0586-5.459 0 0-115.19-60.709-341.94-87.529-85.03-10.059-164.33-13.142-230.23-13.066zm297.65 113.74c-39.306-0.08-82.222 1.1298-127.69 4.3613-207.83 14.773-417.68 87.527-417.68 87.527s24.298-6.0892 65.828-14.494c78.254-22.687 215.48-57.34 351.85-67.033 207.83-14.773 362.41 12.678 362.41 12.678l7.4023 23.879c0.65242 0.11368 1.307 0.22308 1.959 0.33789h0.00586l-9.3672-30.217s-94.347-16.753-234.73-17.039zm272.97 5.9434c-0.9677 42.262 20.313 151.92 90.633 158.37 119.28 0.54314 191.07 38 191.07 38s-1.8209-2.6109-2.8106-7.3691c-14.033-6.6323-82.365-36.149-188.26-36.631-67.193-6.1634-89.615-106.58-90.633-152.37zm-35.447 58.457c-36.347-0.15363-149.19 4.4172-318.97 57.543-212.95 66.633-333.73 161.08-333.73 161.08s12.024-6.695 33.818-17.484c49.702-32.271 152.79-91.563 299.91-137.6 208.96-65.386 331.67-57.219 331.67-57.219l8.2871 25.074c0.65464-0.019523 1.308-0.044092 1.9629-0.0625l-10.25-31.012s-4.3134-0.28877-12.701-0.32422zm220.01 27.053c25.904 10.53 50.912 21.97 74.93 34.432 105.96 48.055 169.01 111.74 186.41 130.81l5.0059-0.32812s-91.399-110.89-266.34-164.91zm97.139 75.668c-3.1871 7.5137-3.7321 13.768-3.2891 18.555 0.3376-3.6641 1.3007-7.8669 3.2891-12.555 7.0452 40.61 51.08 52.916 51.08 52.916s-1.5112-2.4406-2.5039-6.8242c-9.3254-3.2737-42.531-17.245-48.576-52.092zm-251.98 10.1c-50.188 34.548-105.95 68.181-114.74 183.54-0.44034 5.7839-0.6025 11.532-0.51758 17.236 0.06271-3.7289 0.23125-7.4755 0.51758-11.236 8.9041-116.92 66.084-149.89 116.79-184.94-0.65032-1.4372-1.3614-3.0444-2.0508-4.5918zm303.06 11.795c-3.0849 7.758-3.6292 14.334-3.2148 19.428 0.30772-3.9402 1.2304-8.437 3.2148-13.428 12.669 33.34 28.73 46.834 47.43 54.744-1.0156-2.5238-1.6655-4.8119-2.0859-6.9316-17.807-8.0362-33.15-21.723-45.344-53.813zm47.43 25.547c0.13689 5.0501-3.4651 10.461-2.5234 19.457 0.59656-5.6164 2.6269-9.6412 2.5234-13.457 12.362 37.978 48.229 55.592 48.229 55.592s23.319-4.1724 28.629-2.4648c1.7047 1.1383 1.8965 2.0846 2.4648 3.0332 0.56718 0.9493 24.648 41.896 28.248 45.498 2.1865 2.185 6.0376 6.6708 7.9316 10.541 0.07725-0.01668 0.14446-0.03475 0.22461-0.05078 3.6001-3.031-4.5536-12.89-8.1562-16.49-3.6001-3.6025-27.681-44.549-28.248-45.498-0.56832-0.94859-0.7601-1.8949-2.4648-3.0332-5.31-1.7075-28.629 2.4648-28.629 2.4648s-35.866-17.614-48.229-55.592zm22.785 84.578c0.00501 0.72911 0.02038 1.454 0.04102 2.1738 0.01447-0.71308 0.01747-1.4146 0.03906-2.1367-0.02665-0.01241-0.05342-0.02469-0.08008-0.03711zm57.73 11.201c-0.80384 2.7664-0.2001 8.0757 2.1133 11.258 2.5799 3.5517 10.994 8.5586 10.994 8.5586s0.5057 0.44485 0.79883 1.9766c3.4863 0.71727 3.0633-0.19162 2.8086-1.6816-1.4959-1.8564-3.1084-4.3524-4.7266-6.9863-2.2748-1.4217-7.8275-5.0485-9.875-7.8672-1.0584-1.4558-1.7406-3.3567-2.1133-5.2578zm33.395 28.877c-2.7936 1.0602-2.4603 2.7278-1.9785 3.8535 0.56958 1.3254 24.646 24.266 44.936 31.848 9.737 3.6392 16.783 5.4773 21.506 6.416 4.3638-2.9653 7.5-5.0234 7.5-5.0234s-8.7188 0.18959-29.006-7.3926c-17.084-6.3841-36.797-23.611-42.957-29.701zm-531.78 24.365c-1.4346 91.579 71.055 190.04 225.64 188 56.742 0.14347 112.84 5.1537 157.2 11.662 306.67 45.002 329.72 221.58 330.73 264.61 0.70995-28.114-6.2053-222.99-330.73-270.61-44.358-6.5084-100.46-11.519-157.2-11.662-151.21 1.9993-223.88-92.171-225.64-182zm430.15 235.21c169.98 63.377 218.08 259.38 218.9 374.02 0.80098-107.71-41.145-294.59-192.72-368.76-8.451-1.916-17.167-3.675-26.178-5.252z" fill="#272a34" opacity=".1" stroke-width="12.016" style="paint-order:stroke fill markers"/>
</svg>
